# Blender MTL File: 'weapons.blend'
# Material Count: 3

newmtl brown
Ns 10.309621
Ka 1.000000 1.000000 1.000000
Kd 0.573060 0.250738 0.252615
Ks 0.500000 0.500000 0.500000
Ke 0.000000 0.000000 0.000000
Ni 1.450000
d 1.000000
illum 2

newmtl metal
Ns 225.255902
Ka 0.500000 0.500000 0.500000
Kd 0.900000 0.900000 1.000000
Ks 0.500000 0.500000 0.500000
Ke 0.000000 0.000000 0.000000
Ni 1.450000
d 1.000000
illum 3

newmtl white
Ns 10.309621
Ka 1.000000 1.000000 1.000000
Kd 0.960784 0.960784 0.960784
Ks 0.500000 0.500000 0.500000
Ke 0.000000 0.000000 0.000000
Ni 1.450000
d 1.000000
illum 2
